\relax 
\citation{18}
\citation{17}
\citation{30}
\citation{18}
\citation{11}
\citation{24}
\citation{30}
\citation{23}
\citation{3}
\citation{4}
\citation{18}
\citation{10}
\@writefile{toc}{\contentsline {section}{\numberline {I}Introduction}{1}}
\newlabel{eqalpha}{{1}{1}}
\citation{24}
\citation{30}
\citation{9}
\citation{14}
\citation{11}
\citation{16}
\citation{23}
\citation{22}
\citation{4}
\citation{26}
\citation{4}
\citation{25}
\citation{19}
\citation{20}
\citation{8}
\citation{27}
\citation{28}
\@writefile{lof}{\contentsline {figure}{\numberline {1}{\ignorespaces Three kinds of common matting challenges. (a) foreground object with many small holes; (b) overlapped color distributions of foreground and background regions; (c) large semi-transparent regions.}}{2}}
\newlabel{fig:challenges}{{1}{2}}
\@writefile{toc}{\contentsline {section}{\numberline {II}Previous Works}{2}}
\@writefile{toc}{\contentsline {subsection}{\numberline {\unhbox \voidb@x \hbox {II-A}}Sampling-based Method}{2}}
\@writefile{toc}{\contentsline {subsection}{\numberline {\unhbox \voidb@x \hbox {II-B}}Affinity-based Method}{2}}
\@writefile{toc}{\contentsline {subsection}{\numberline {\unhbox \voidb@x \hbox {II-C}}Combined Sampling \& Affinity Method}{2}}
\citation{1}
\citation{27}
\@writefile{toc}{\contentsline {section}{\numberline {III}Fusion Matting}{3}}
\@writefile{toc}{\contentsline {subsection}{\numberline {\unhbox \voidb@x \hbox {III-A}}Motivation}{3}}
\newlabel{sec:der}{{\unhbox \voidb@x \hbox {III-A}}{3}}
\@writefile{toc}{\contentsline {subsection}{\numberline {\unhbox \voidb@x \hbox {III-B}}The Weighted Voting Algorithm}{3}}
\newlabel{sec:vot}{{\unhbox \voidb@x \hbox {III-B}}{3}}
\@writefile{toc}{\contentsline {subsubsection}{\numberline {\unhbox \voidb@x \hbox {III-B}1}Basic Approach}{3}}
\newlabel{eq:vote}{{3}{3}}
\newlabel{eq:e1}{{4}{3}}
\@writefile{toc}{\contentsline {subsubsection}{\numberline {\unhbox \voidb@x \hbox {III-B}2}Weighted Voting}{3}}
\@writefile{lot}{\contentsline {table}{\numberline {I}{\ignorespaces Quantitative evaluation of 23 matting methods on alpha matting website on 8 test images with three types of trimaps as user interaction with respect to SAD.}}{4}}
\newlabel{tb:sad}{{I}{4}}
\@writefile{toc}{\contentsline {subsection}{\numberline {\unhbox \voidb@x \hbox {III-C}}Smoothing Process}{4}}
\newlabel{sec:smooth}{{\unhbox \voidb@x \hbox {III-C}}{4}}
\newlabel{eq:energy}{{9}{4}}
\@writefile{toc}{\contentsline {subsubsection}{\numberline {\unhbox \voidb@x \hbox {III-C}1}Laplacian Matrix based Fusion Matting}{4}}
\citation{4}
\newlabel{eq:laplacian}{{11}{5}}
\@writefile{toc}{\contentsline {subsubsection}{\numberline {\unhbox \voidb@x \hbox {III-C}2}Trajectory Optimization based Fusion Matting}{5}}
\newlabel{eq:eng1}{{15}{5}}
\newlabel{eq:eng2}{{17}{5}}
\newlabel{eq:eng3}{{19}{5}}
\newlabel{eq:eng4}{{19}{5}}
\newlabel{eq:engx}{{20}{5}}
\citation{6}
\citation{11}
\citation{12}
\citation{14}
\citation{20}
\citation{6}
\citation{11}
\citation{12}
\citation{14}
\citation{20}
\citation{10}
\citation{6}
\citation{11}
\citation{12}
\citation{14}
\citation{20}
\citation{6}
\citation{11}
\citation{12}
\citation{14}
\citation{20}
\citation{27}
\citation{6}
\citation{11}
\citation{13}
\citation{32}
\citation{15}
\citation{12}
\citation{29}
\citation{14}
\citation{7}
\citation{20}
\citation{13}
\citation{11}
\citation{12}
\citation{15}
\citation{14}
\citation{20}
\citation{6}
\citation{29}
\citation{7}
\@writefile{lof}{\contentsline {figure}{\numberline {2}{\ignorespaces A schematic diagram of calculating energy terms and indexes of alpha values. (a) calculate energy terms for all the pixels; (b) calculate indexes of alpha values.}}{6}}
\newlabel{fig:energy}{{2}{6}}
\newlabel{eq:imn}{{21}{6}}
\newlabel{eq:imj}{{22}{6}}
\newlabel{eq:iin}{{23}{6}}
\newlabel{eq:iij}{{24}{6}}
\@writefile{toc}{\contentsline {section}{\numberline {IV}Experimental Results}{6}}
\@writefile{toc}{\contentsline {subsection}{\numberline {\unhbox \voidb@x \hbox {IV-A}}Methods Chosen for Fusion}{6}}
\@writefile{toc}{\contentsline {subsection}{\numberline {\unhbox \voidb@x \hbox {IV-B}}Quantitative Evaluation}{6}}
\citation{27}
\citation{11}
\citation{27}
\citation{11}
\citation{11}
\citation{12}
\citation{14}
\citation{20}
\@writefile{lot}{\contentsline {table}{\numberline {II}{\ignorespaces Comparison between the proposed fusion matting method and other matting methods by [1] with respect to the four measurements (a) SAD, (b) MSE, (c) GE, (d) CE on benchmark dataset. Only top 10 methods are shown for clarity.}}{7}}
\newlabel{tb:cp1}{{II}{7}}
\bibcite{18}{1}
\bibcite{17}{2}
\bibcite{30}{3}
\bibcite{11}{4}
\bibcite{24}{5}
\bibcite{23}{6}
\@writefile{lof}{\contentsline {figure}{\numberline {3}{\ignorespaces Visual comparison of our proposed two fusion matting methods with Iterative Transductive Matting (ITM) \cite  {6}, Comprehensive Sampling Matting (CSM)\cite  {11}, Weighted Color and Texture Matting (WC\&T )\cite  {12}, Shared Matting (SM)\cite  {14} and Global Sampling Matting (GSM)\cite  {20} on 3 difficult images named Doll, Elephant, Donkey respectively.}}{8}}
\newlabel{fig:result1}{{3}{8}}
\@writefile{toc}{\contentsline {subsection}{\numberline {\unhbox \voidb@x \hbox {IV-C}}Visual Comparison}{8}}
\@writefile{toc}{\contentsline {section}{\numberline {V}Conclusion}{8}}
\@writefile{toc}{\contentsline {section}{References}{8}}
\bibcite{3}{7}
\bibcite{4}{8}
\bibcite{10}{9}
\bibcite{9}{10}
\bibcite{14}{11}
\bibcite{16}{12}
\bibcite{22}{13}
\bibcite{26}{14}
\bibcite{25}{15}
\bibcite{19}{16}
\bibcite{20}{17}
\bibcite{8}{18}
\bibcite{27}{19}
\bibcite{28}{20}
\bibcite{1}{21}
\bibcite{6}{22}
\bibcite{12}{23}
\bibcite{13}{24}
\bibcite{32}{25}
\bibcite{15}{26}
\bibcite{29}{27}
\bibcite{7}{28}
\@writefile{lof}{\contentsline {figure}{\numberline {4}{\ignorespaces Visual comparison of our proposed two fusion matting methods with Iterative Transductive Matting (ITM) \cite  {6}, Comprehensive Sampling Matting (CSM)\cite  {11}, Weighted Color and Texture Matting (WC\&T )\cite  {12}, Shared Matting (SM)\cite  {14} and Global Sampling Matting (GSM)\cite  {20} on 3 difficult images named Plastic bag, Net, Troll respectively.}}{9}}
\newlabel{fig:result2}{{4}{9}}
