\relax 
\citation{18}
\citation{17}
\citation{30}
\citation{18}
\citation{11}
\citation{24}
\citation{30}
\citation{23}
\citation{3}
\citation{4}
\citation{18}
\citation{10}
\@writefile{toc}{\contentsline {section}{\numberline {1}Introduction}{\thepage }}
\newlabel{eqalpha}{{1}{\thepage }}
\citation{24}
\citation{30}
\citation{9}
\citation{14}
\citation{11}
\citation{16}
\citation{23}
\citation{22}
\citation{4}
\citation{26}
\citation{4}
\citation{25}
\citation{19}
\citation{20}
\citation{8}
\citation{27}
\citation{28}
\@writefile{lof}{\contentsline {figure}{\numberline {1}{\ignorespaces Three kinds of common matting challenges. (a) foreground object with many small holes; (b) overlapped color distributions of foreground and background regions; (c) large semi-transparent regions.}}{\thepage }}
\newlabel{fig:challenges}{{1}{\thepage }}
\@writefile{toc}{\contentsline {section}{\numberline {2}Previous Works}{\thepage }}
\@writefile{toc}{\contentsline {subsection}{\numberline {2.1}Sampling-based Method}{\thepage }}
\@writefile{toc}{\contentsline {subsection}{\numberline {2.2}Affinity-based Method}{\thepage }}
\@writefile{toc}{\contentsline {subsection}{\numberline {2.3}Combined Sampling \& Affinity Method}{\thepage }}
\citation{1}
\citation{27}
\@writefile{toc}{\contentsline {section}{\numberline {3}Fusion Matting}{\thepage }}
\@writefile{toc}{\contentsline {subsection}{\numberline {3.1}Motivation}{\thepage }}
\newlabel{sec:der}{{3.1}{\thepage }}
\@writefile{toc}{\contentsline {subsection}{\numberline {3.2}The Weighted Voting Algorithm}{\thepage }}
\newlabel{sec:vot}{{3.2}{\thepage }}
\@writefile{toc}{\contentsline {subsubsection}{\numberline {3.2.1}Basic Approach}{\thepage }}
\newlabel{eq:vote}{{3}{\thepage }}
\newlabel{eq:e1}{{4}{\thepage }}
\@writefile{toc}{\contentsline {subsubsection}{\numberline {3.2.2}Weighted Voting}{\thepage }}
\citation{4}
\@writefile{lot}{\contentsline {table}{\numberline {1}{\ignorespaces Quantitative evaluation of 23 matting methods on alpha matting website on 8 test images with three types of trimaps as user interaction with respect to SAD.}}{\thepage }}
\newlabel{tb:sad}{{1}{\thepage }}
\@writefile{toc}{\contentsline {subsection}{\numberline {3.3}Smoothing Process}{\thepage }}
\newlabel{sec:smooth}{{3.3}{\thepage }}
\newlabel{eq:energy}{{9}{\thepage }}
\@writefile{toc}{\contentsline {subsubsection}{\numberline {3.3.1}Laplacian Matrix based Fusion Matting}{\thepage }}
\newlabel{eq:laplacian}{{11}{\thepage }}
\citation{6}
\citation{11}
\citation{12}
\citation{14}
\citation{20}
\citation{6}
\citation{11}
\citation{12}
\citation{14}
\citation{20}
\@writefile{toc}{\contentsline {subsubsection}{\numberline {3.3.2}Trajectory Optimization based Fusion Matting}{\thepage }}
\newlabel{eq:eng1}{{15}{\thepage }}
\newlabel{eq:eng2}{{17}{\thepage }}
\@writefile{lof}{\contentsline {figure}{\numberline {2}{\ignorespaces A schematic diagram of calculating energy terms and indexes of alpha values. (a) calculate energy terms for all the pixels; (b) calculate indexes of alpha values.}}{\thepage }}
\newlabel{fig:energy}{{2}{\thepage }}
\newlabel{eq:eng3}{{19}{\thepage }}
\newlabel{eq:eng4}{{19}{\thepage }}
\newlabel{eq:engx}{{20}{\thepage }}
\@writefile{lot}{\contentsline {table}{\numberline {2}{\ignorespaces Comparison between the proposed fusion matting method and other matting methods by [1] with respect to the four measurements (a) SAD, (b) MSE, (c) GE, (d) CE on benchmark dataset. Only top 10 methods are shown for clarity.}}{\thepage }}
\newlabel{tb:cp1}{{2}{\thepage }}
\citation{10}
\citation{6}
\citation{11}
\citation{12}
\citation{14}
\citation{20}
\citation{6}
\citation{11}
\citation{12}
\citation{14}
\citation{20}
\citation{27}
\citation{6}
\citation{11}
\citation{13}
\citation{32}
\citation{15}
\citation{12}
\citation{29}
\citation{14}
\citation{7}
\citation{20}
\citation{13}
\citation{11}
\citation{12}
\citation{15}
\citation{14}
\citation{20}
\citation{6}
\citation{29}
\citation{7}
\@writefile{lof}{\contentsline {figure}{\numberline {3}{\ignorespaces Visual comparison of our proposed two fusion matting methods with Iterative Transductive Matting (ITM) \cite  {6}, Comprehensive Sampling Matting (CSM)\cite  {11}, Weighted Color and Texture Matting (WC\&T )\cite  {12}, Shared Matting (SM)\cite  {14} and Global Sampling Matting (GSM)\cite  {20} on 3 difficult images named Doll, Elephant, Donkey respectively.}}{\thepage }}
\newlabel{fig:result1}{{3}{\thepage }}
\newlabel{eq:imn}{{21}{\thepage }}
\newlabel{eq:imj}{{22}{\thepage }}
\newlabel{eq:iin}{{23}{\thepage }}
\newlabel{eq:iij}{{24}{\thepage }}
\@writefile{toc}{\contentsline {section}{\numberline {4}Experimental Results}{\thepage }}
\@writefile{toc}{\contentsline {subsection}{\numberline {4.1}Methods Chosen for Fusion}{\thepage }}
\citation{27}
\citation{11}
\citation{27}
\citation{11}
\citation{11}
\citation{12}
\citation{14}
\citation{20}
\@writefile{lof}{\contentsline {figure}{\numberline {4}{\ignorespaces Visual comparison of our proposed two fusion matting methods with Iterative Transductive Matting (ITM) \cite  {6}, Comprehensive Sampling Matting (CSM)\cite  {11}, Weighted Color and Texture Matting (WC\&T )\cite  {12}, Shared Matting (SM)\cite  {14} and Global Sampling Matting (GSM)\cite  {20} on 3 difficult images named Plastic bag, Net, Troll respectively.}}{\thepage }}
\newlabel{fig:result2}{{4}{\thepage }}
\@writefile{toc}{\contentsline {subsection}{\numberline {4.2}Quantitative Evaluation}{\thepage }}
\@writefile{toc}{\contentsline {subsection}{\numberline {4.3}Visual Comparison}{\thepage }}
\bibstyle{abbrv}
\bibdata{fmbib}
\bibcite{8}{1}
\bibcite{7}{2}
\bibcite{26}{3}
\bibcite{28}{4}
\bibcite{27}{5}
\bibcite{1}{6}
\bibcite{30}{7}
\bibcite{14}{8}
\bibcite{22}{9}
\bibcite{23}{10}
\bibcite{6}{11}
\bibcite{20}{12}
\bibcite{15}{13}
\bibcite{25}{14}
\bibcite{4}{15}
\bibcite{3}{16}
\bibcite{9}{17}
\bibcite{10}{18}
\bibcite{24}{19}
\bibcite{12}{20}
\bibcite{11}{21}
\bibcite{29}{22}
\bibcite{16}{23}
\bibcite{13}{24}
\bibcite{17}{25}
\bibcite{19}{26}
\bibcite{18}{27}
\bibcite{32}{28}
\@writefile{toc}{\contentsline {section}{\numberline {5}Conclusion}{\thepage }}
\@writefile{toc}{\contentsline {section}{\numberline {6}References}{\thepage }}
